id;photo;photo_content_type;city;country;postal_code;phone_number;name_company;description;brochure_company;brochure_company_content_type;website_company
1;../fake-data/blob/hipster.png;image/png;South George;Belgium;10121;38025;connecting Personal Loan Account;payment Montserrat;../fake-data/blob/hipster.png;image/png;backing up Rue
2;../fake-data/blob/hipster.png;image/png;Lake Arvid;New Caledonia;25476;23864;Representative;override orchid reboot;../fake-data/blob/hipster.png;image/png;invoice
3;../fake-data/blob/hipster.png;image/png;Lake Wadeport;Iran;44138;78341;Electronics drive Research;Automotive;../fake-data/blob/hipster.png;image/png;explicit
4;../fake-data/blob/hipster.png;image/png;New Briatown;Uruguay;86333;99118;Greece Quality;e-markets;../fake-data/blob/hipster.png;image/png;invoice Road standardization
5;../fake-data/blob/hipster.png;image/png;New Antonietta;Sweden;89164;57569;Tuna Haven Handcrafted;Philippines;../fake-data/blob/hipster.png;image/png;standardization tan deposit
6;../fake-data/blob/hipster.png;image/png;South Chayamouth;Turkmenistan;43781;52166;monetize;next-generation encompassing;../fake-data/blob/hipster.png;image/png;magnetic Concrete
7;../fake-data/blob/hipster.png;image/png;East Savanna;Bahamas;69678;92060;generating strategize;plum application;../fake-data/blob/hipster.png;image/png;protocol
8;../fake-data/blob/hipster.png;image/png;Huelsville;South Georgia and the South Sandwich Islands;34485;43851;SCSI invoice;Borders definition;../fake-data/blob/hipster.png;image/png;Computer
9;../fake-data/blob/hipster.png;image/png;North Nettie;Moldova;20837;39526;Bolivia;California;../fake-data/blob/hipster.png;image/png;Refined Cotton Sausages Solomon Islands Dollar
10;../fake-data/blob/hipster.png;image/png;East Felipeside;Puerto Rico;73422;52101;Seamless bandwidth;structure Credit Card Account;../fake-data/blob/hipster.png;image/png;Central eco-centric
