{
    "name": "Affectation",
    "fields": [
        {
            "fieldName": "dateAffectation",
            "fieldType": "Instant",
            "fieldValidateRules": [
                "required"
            ]
        },
        {
            "fieldName": "startDate",
            "fieldType": "Instant",
            "fieldValidateRules": [
                "required"
            ]
        },
        {
            "fieldName": "endDate",
            "fieldType": "Instant",
            "fieldValidateRules": [
                "required"
            ]
        }
    ],
    "relationships": [
        {
            "relationshipType": "many-to-one",
            "otherEntityName": "student",
            "otherEntityRelationshipName": "affectation",
            "relationshipName": "student",
            "otherEntityField": "id"
        },
        {
            "relationshipType": "many-to-one",
            "otherEntityName": "internship",
            "otherEntityRelationshipName": "affectation",
            "relationshipName": "internship",
            "otherEntityField": "id"
        }
    ],
    "changelogDate": "20200502033800",
    "entityTableName": "affectation",
    "dto": "no",
    "pagination": "no",
    "service": "serviceImpl",
    "jpaMetamodelFiltering": false,
    "fluentMethods": true,
    "readOnly": false,
    "embedded": false,
    "clientRootFolder": "",
    "applications": "*"
}