{
    "name": "Application",
    "fields": [
        {
            "fieldName": "cv",
            "fieldType": "byte[]",
            "fieldTypeBlobContent": "any",
            "fieldValidateRules": [
                "required"
            ]
        },
        {
            "fieldName": "firstDisponibility",
            "fieldType": "Instant",
            "fieldValidateRules": [
                "required"
            ]
        },
        {
            "fieldName": "secondDisponibility",
            "fieldType": "Instant",
            "fieldValidateRules": [
                "required"
            ]
        },
        {
            "fieldName": "thirdDisponibility",
            "fieldType": "Instant",
            "fieldValidateRules": [
                "required"
            ]
        }
    ],
    "relationships": [
        {
            "relationshipType": "many-to-one",
            "otherEntityName": "student",
            "otherEntityRelationshipName": "application",
            "relationshipName": "student",
            "otherEntityField": "id"
        },
        {
            "relationshipType": "many-to-one",
            "otherEntityName": "internship",
            "otherEntityRelationshipName": "application",
            "relationshipName": "internship",
            "otherEntityField": "id"
        }
    ],
    "changelogDate": "20200502033700",
    "entityTableName": "application",
    "dto": "no",
    "pagination": "pagination",
    "service": "serviceImpl",
    "jpaMetamodelFiltering": false,
    "fluentMethods": true,
    "readOnly": false,
    "embedded": false,
    "clientRootFolder": "",
    "applications": "*"
}