{
    "name": "StudentEvaluation",
    "fields": [
        {
            "fieldName": "communication",
            "fieldType": "Integer",
            "fieldValidateRules": [
                "required"
            ]
        },
        {
            "fieldName": "technical",
            "fieldType": "Integer",
            "fieldValidateRules": [
                "required"
            ]
        }
    ],
    "relationships": [
        {
            "relationshipType": "one-to-one",
            "otherEntityName": "affectation",
            "otherEntityRelationshipName": "studentEvaluation",
            "relationshipName": "affectation",
            "otherEntityField": "id",
            "ownerSide": true
        },
        {
            "relationshipType": "many-to-one",
            "otherEntityName": "student",
            "otherEntityRelationshipName": "studentEvaluation",
            "relationshipName": "student",
            "otherEntityField": "id"
        },
        {
            "relationshipType": "many-to-one",
            "otherEntityName": "company",
            "otherEntityRelationshipName": "studentEvaluation",
            "relationshipName": "company",
            "otherEntityField": "id"
        }
    ],
    "changelogDate": "20200502033400",
    "entityTableName": "student_evaluation",
    "dto": "no",
    "pagination": "pagination",
    "service": "serviceImpl",
    "jpaMetamodelFiltering": false,
    "fluentMethods": true,
    "readOnly": false,
    "embedded": false,
    "clientRootFolder": "",
    "applications": "*"
}