{
    "fluentMethods": true,
    "clientRootFolder": "",
    "relationships": [],
    "fields": [],
    "changelogDate": "20200502154253",
    "dto": "no",
    "searchEngine": false,
    "service": "no",
    "entityTableName": "views",
    "databaseType": "sql",
    "readOnly": false,
    "jpaMetamodelFiltering": false,
    "pagination": "pagination"
}
